  _    _                _
 | |  | |              | |
 | |__| | ___ _ __ ___ | | ___   _
 |  __  |/ _ \ '__/ _ \| |/ / | | |
 | |  | |  __/ | | (_) |   <| |_| |
 |_|  |_|\___|_|  \___/|_|\_\\__,_|

:: Built with Spring Boot :: ${spring-boot.version}.
